^C:\USERS\CCRISAN\WORK\TESTS\TFACT\TPRINT\MAIN.CPP
C:\USERS\CCRISAN\WORK\TESTS\TFACT\TPRINT\DEBUG\VC141.PDB
C:\USERS\CCRISAN\WORK\TESTS\TFACT\TPRINT\DEBUG\VC141.IDB
C:\USERS\CCRISAN\WORK\TESTS\TFACT\TPRINT\DEBUG\MAIN.OBJ
